Base path: A:/GameEngine/Unity/Editor/Data
Pipe name: \\.\pipe\UnityShaderCompiler-32bit-2-15752
Cmd: getPlatforms
Unhandled exception: Readfile from pipe failed. GLE=The pipe has been ended.


Quitting shader compiler process
